{
  "project_info": {
    "project_number": "81208056458",
    "firebase_url": "https://godrej-properties-7e698.firebaseio.com",
    "project_id": "godrej-properties-7e698",
    "storage_bucket": "godrej-properties-7e698.appspot.com"
  },
  "client": [
    {
      "client_info": {
        "mobilesdk_app_id": "1:81208056458:android:dad07c9c7708243e",
        "android_client_info": {
          "package_name": "com.godrejproperties"
        }
      },
      "oauth_client": [
        {
          "client_id": "81208056458-v1pga8n39858h5dvqhdo3bpb13pfep2a.apps.googleusercontent.com",
          "client_type": 3
        }
      ],
      "api_key": [
        {
          "current_key": "AIzaSyAiS7Ro-tK-zqRWNIBr9offGgVSh9U7i6o"
        }
      ],
      "services": {
        "analytics_service": {
          "status": 1
        },
        "appinvite_service": {
          "status": 1,
          "other_platform_oauth_client": []
        },
        "ads_service": {
          "status": 2
        }
      }
    }
  ],
  "configuration_version": "1"
}